# WLINK input file for KLOCGA test ver 0
SYSTEM DOS
NAME klocga.exe

OPTION DOSSEG
OPTION PACKDATA=4
OPTION STACK=4096

FILE klcfon68.obj
FILE klctiles.obj
FILE klcgame.obj
FILE klcgraph.obj
FILE klcmain.obj
FILE klclev.obj
FILE klctxt.obj
